module gitlab.com/chalukyaj/cloud_agnostic_messaging

go 1.20

require (
	cloud.google.com/go/pubsub v1.33.0
	github.com/Azure/azure-sdk-for-go/sdk/azidentity v1.3.1
	github.com/Azure/azure-sdk-for-go/sdk/messaging/azservicebus v1.4.1
	github.com/aws/aws-sdk-go-v2 v1.21.0
	github.com/aws/aws-sdk-go-v2/config v1.18.39
	github.com/aws/aws-sdk-go-v2/service/sns v1.21.5
	github.com/aws/aws-sdk-go-v2/service/sqs v1.24.5
	github.com/google/uuid v1.3.0
)

require (
	cloud.google.com/go v0.110.2 // indirect
	cloud.google.com/go/compute v1.19.3 // indirect
	cloud.google.com/go/compute/metadata v0.2.3 // indirect
	cloud.google.com/go/iam v1.1.0 // indirect
	github.com/Azure/azure-sdk-for-go/sdk/azcore v1.7.1 // indirect
	github.com/Azure/azure-sdk-for-go/sdk/internal v1.3.0 // indirect
	github.com/Azure/go-amqp v1.0.2 // indirect
	github.com/AzureAD/microsoft-authentication-library-for-go v1.1.1 // indirect
	github.com/aws/aws-sdk-go-v2/credentials v1.13.37 // indirect
	github.com/aws/aws-sdk-go-v2/feature/ec2/imds v1.13.11 // indirect
	github.com/aws/aws-sdk-go-v2/internal/configsources v1.1.41 // indirect
	github.com/aws/aws-sdk-go-v2/internal/endpoints/v2 v2.4.35 // indirect
	github.com/aws/aws-sdk-go-v2/internal/ini v1.3.42 // indirect
	github.com/aws/aws-sdk-go-v2/service/internal/presigned-url v1.9.35 // indirect
	github.com/aws/aws-sdk-go-v2/service/sso v1.13.6 // indirect
	github.com/aws/aws-sdk-go-v2/service/ssooidc v1.15.6 // indirect
	github.com/aws/aws-sdk-go-v2/service/sts v1.21.5 // indirect
	github.com/aws/smithy-go v1.14.2 // indirect
	github.com/golang-jwt/jwt/v5 v5.0.0 // indirect
	github.com/golang/groupcache v0.0.0-20210331224755-41bb18bfe9da // indirect
	github.com/golang/protobuf v1.5.3 // indirect
	github.com/google/go-cmp v0.5.9 // indirect
	github.com/google/s2a-go v0.1.4 // indirect
	github.com/googleapis/enterprise-certificate-proxy v0.2.3 // indirect
	github.com/googleapis/gax-go/v2 v2.11.0 // indirect
	github.com/kylelemons/godebug v1.1.0 // indirect
	github.com/pkg/browser v0.0.0-20210911075715-681adbf594b8 // indirect
	go.opencensus.io v0.24.0 // indirect
	golang.org/x/crypto v0.12.0 // indirect
	golang.org/x/net v0.14.0 // indirect
	golang.org/x/oauth2 v0.8.0 // indirect
	golang.org/x/sync v0.2.0 // indirect
	golang.org/x/sys v0.11.0 // indirect
	golang.org/x/text v0.12.0 // indirect
	google.golang.org/api v0.126.0 // indirect
	google.golang.org/appengine v1.6.7 // indirect
	google.golang.org/genproto v0.0.0-20230530153820-e85fd2cbaebc // indirect
	google.golang.org/genproto/googleapis/api v0.0.0-20230530153820-e85fd2cbaebc // indirect
	google.golang.org/genproto/googleapis/rpc v0.0.0-20230530153820-e85fd2cbaebc // indirect
	google.golang.org/grpc v1.55.0 // indirect
	google.golang.org/protobuf v1.30.0 // indirect
)
